{
    "__comment": "Designed by Danielm59 with BDcraft Cubik PRO 0.96 Beta - http://bdcraft.net",
    "parent": "block/block",
    "textures": {
        "particle": "fastfood:blocks/counter_side",
        "top": "fastfood:blocks/counter_top",
        "side": "fastfood:blocks/counter_side",
        "front": "fastfood:blocks/press_front",
        "bottom": "fastfood:blocks/counter_bottom"
    },
    "elements": [
        {
            "from": [ 0, 12, 0 ],
            "to": [ 16, 16, 16 ],
            "faces": {
                "down":  { "uv": [ 16, 16, 0, 0 ], "texture": "#top" },
                "up":    { "uv": [ 0, 0, 16, 16 ], "texture": "#top", "cullface": "up" },
                "north": { "uv": [ 0, 0, 16, 4 ], "texture": "#side", "cullface": "north" },
                "south": { "uv": [ 0, 0, 16, 4 ], "texture": "#side", "cullface": "south" },
                "west":  { "uv": [ 0, 0, 16, 4 ], "texture": "#side", "cullface": "west" },
                "east":  { "uv": [ 0, 0, 16, 4 ], "texture": "#side", "cullface": "east" }
            }
        },
        {
            "from": [ 13, 0, 1 ],
            "to": [ 15, 12, 15 ],
            "faces": {
                "down":  { "uv": [ 2.5, 16, 0, 0 ], "texture": "#bottom", "cullface": "down" },
                "north": { "uv": [ 0, 4, 2.5, 16 ], "texture": "#side" },
                "south": { "uv": [ 13.5, 4, 16, 16 ], "texture": "#front" },
                "west":  { "uv": [ 0, 4, 16, 16 ], "texture": "#side" },
                "east":  { "uv": [ 0, 4, 16, 16 ], "texture": "#side" }
            }
        },
        {
            "from": [ 1, 0, 1 ],
            "to": [ 3, 12, 15 ],
            "faces": {
                "down":  { "uv": [ 16, 16, 13.5, 0 ], "texture": "#bottom", "cullface": "down" },
                "north": { "uv": [ 13.5, 4, 16, 16 ], "texture": "#side" },
                "south": { "uv": [ 0, 4, 2.5, 16 ], "texture": "#front" },
                "west":  { "uv": [ 0, 4, 16, 16 ], "texture": "#side" },
                "east":  { "uv": [ 0, 4, 16, 16 ], "texture": "#side" }
            }
        },
        {
            "from": [ 3, 0, 1 ],
            "to": [ 13, 12, 3 ],
            "faces": {
                "down":  { "uv": [ 13.5, 2.5, 2.5, 0 ], "texture": "#bottom", "cullface": "down" },
                "north": { "uv": [ 2.5, 4, 13.5, 16 ], "texture": "#side" },
                "south": { "uv": [ 2.5, 4, 13.5, 16 ], "texture": "#side" }
            }
        },
        {
            "from": [ 3, 0, 3 ],
            "to": [ 13, 2, 15 ],
            "faces": {
                "down":  { "uv": [ 13.5, 16, 2.5, 2.5 ], "texture": "#bottom", "cullface": "down" },
                "up":    { "uv": [ 2.5, 2.5, 13.5, 16 ], "texture": "#bottom" },
                "south": { "uv": [ 2.5, 14, 13.5, 16 ], "texture": "#front" }
            }
        },
        {
            "from": [ 3, 3, 13 ],
            "to": [ 5, 12, 15 ],
            "faces": {
                "north": { "uv": [ 11, 4, 13.5, 13 ], "texture": "#front" },
                "south": { "uv": [ 2.5, 4, 5, 13 ], "texture": "#front" },
                "east":  { "uv": [ 2.5, 4.5, 5, 13.5 ], "texture": "#front" }
            }
        },
        {
            "from": [ 11, 3, 13 ],
            "to": [ 13, 12, 15 ],
            "faces": {
                "north": { "uv": [ 2.5, 4, 5, 13 ], "texture": "#front" },
                "south": { "uv": [ 11, 4, 13.5, 13 ], "texture": "#front" },
                "west":  { "uv": [ 11, 4, 13.5, 13 ], "texture": "#front" }
            }
        },
        {
            "from": [ 7, 8, 7 ],
            "to": [ 9, 12, 9 ],
            "faces": {
                "north": { "uv": [ 7, 4, 9, 8 ], "texture": "#front" },
                "south": { "uv": [ 7, 4, 9, 8 ], "texture": "#front" },
                "west":  { "uv": [ 7, 4, 9, 8 ], "texture": "#front" },
                "east":  { "uv": [ 7, 4, 9, 8 ], "texture": "#front" }
            }
        },
        {
            "from": [ 4, 6, 4 ],
            "to": [ 12, 8, 12.5 ],
            "faces": {
                "down":  { "uv": [ 12, 12.5, 4, 4 ], "texture": "#bottom" },
                "up":    { "uv": [ 4, 4, 12, 12.5 ], "texture": "#bottom" },
                "north": { "uv": [ 4, 8, 12, 10 ], "texture": "#front" },
                "south": { "uv": [ 4, 8, 12, 10 ], "texture": "#front" },
                "west":  { "uv": [ 4, 8, 12.5, 10 ], "texture": "#front" },
                "east":  { "uv": [ 3.5, 8, 12, 10 ], "texture": "#front" }
            }
        },
        {
            "from": [ 3, 2, 13 ],
            "to": [ 13, 3, 15 ],
            "faces": {
                "up":    { "uv": [ 2.5, 13, 13.5, 15 ], "texture": "#front" },
                "north": { "uv": [ 2.5, 13, 13.5, 14 ], "texture": "#front" },
                "south": { "uv": [ 2.5, 13, 13.5, 14 ], "texture": "#front" }
            }
        }
    ]
}