{
    "variants": {
        "facing=north": { "model": "fastfood:press", "y": 180 },
        "facing=south": { "model": "fastfood:press" },
        "facing=west":  { "model": "fastfood:press", "y": 90 },
        "facing=east":  { "model": "fastfood:press", "y": 270 }
    }
}
